{
  "data": [
    {
      "name": "CCTV-1",
      "url": "https://cctvalih5ca.v.myalicdn.com/live/cctv1_2/index.m3u8"
    },
    {
      "name": "CCTV-13",
      "url": "https://cctvcnch5ca.v.wscdns.com/live/cctv13_2/index.m3u8"
    },
    {
      "name": "CCTV-5",
      "url": "https://cctv5ksh5ca.v.kcdnvip.com/clive/cctv5_2/index.m3u8"
    },
    {
      "name": "CCTV-6",
      "url": "https://cctvtxyh5ca.liveplay.myqcloud.com/live/cctv6_2/index.m3u8"
    },
    {
      "name": "CCTV-7",
      "url": "https://cctvksh5ca.v.kcdnvip.com/clive/cctv7_2/index.m3u8"
    },
    {
      "name": "CCTV-8",
      "url": "https://cctvksh5ca.v.kcdnvip.com/clive/cctv8_2/index.m3u8"
    },
    {
      "name": "CCTV-9",
      "url": "https://cctvksh5ca.v.kcdnvip.com/clive/cctvjilu_2/index.m3u8"
    },
    {
      "name": "CCTV-10",
      "url": "https://cctvtxyh5ca.liveplay.myqcloud.com/live/cctv10_2/index.m3u8"
    },
    {
      "name": "CCTV-12",
      "url": "https://cctvalih5ca.v.myalicdn.com/live/cctv12_2/index.m3u8"
    },
    {
      "name": "CCTV-少儿",
      "url": "https://cctvtxyh5ca.liveplay.myqcloud.com/live/cctvchild_2/index.m3u8"
    }
  ]
}
